<!-- Generated by IcoMoon.io -->
<svg version="1.1" xmlns="http://www.w3.org/2000/svg" width="1024" height="1024" viewBox="0 0 1024 1024">
<title></title>
<g id="icomoon-ignore">
</g>
<path d="M279.88 771.291c5.54-6.107 55.56-61.864 105.2-135.504 67.38-99.957 101.54-184.239 101.54-250.518 0-133.037-109.14-241.269-243.3-241.269-134.18 0-243.32 108.232-243.32 241.269 0 66.28 34.16 150.562 101.54 250.518 49.64 73.64 99.66 129.397 105.18 135.504 9.32 10.284 22.66 16.172 36.58 16.172 13.94 0 27.28-5.888 36.58-16.172zM193.5 443.174l-12.32 24.606c-5.24 10.483-15.86 16.53-26.88 16.53-4.48 0-9.040-0.995-13.34-3.123-14.84-7.34-20.88-25.263-13.48-40.003l76.6-153.048c7.18-14.322 21.62-23.293 37.72-23.393 16.12 0 30.68 8.673 38.040 22.915l79.14 153.168c7.56 14.66 1.76 32.662-12.98 40.182-14.74 7.539-32.82 1.75-40.38-12.89l-12.9-24.944h-99.22z"></path>
<path d="M223.36 383.498h38.54l-19.58-37.874z"></path>
<path d="M293.31 820.324h-50c-16.568 0-30 13.359-30 29.838s13.432 29.838 30 29.838h50c16.568 0 30-13.359 30-29.838s-13.432-29.838-30-29.838z"></path>
<path d="M643.214 820.324h-87.476c-16.568 0-30 13.359-30 29.838s13.432 29.838 30 29.838h87.476c16.568 0 30-13.359 30-29.838s-13.432-29.838-30-29.838z"></path>
<path d="M468.262 820.324h-87.476c-16.568 0-30 13.359-30 29.838s13.432 29.838 30 29.838h87.476c16.568 0 30-13.359 30-29.838s-13.432-29.838-30-29.838z"></path>
<path d="M780.69 820.324h-50c-16.568 0-30 13.359-30 29.838s13.432 29.838 30 29.838h50c16.568 0 30-13.359 30-29.838s-13.432-29.838-30-29.838z"></path>
<path d="M825.48 324.419h-87.8v20.27h87.8c5.62 0 10.2-4.555 10.2-10.145 0-5.57-4.58-10.125-10.2-10.125z"></path>
<path d="M825.48 404.365h-87.8v20.27h87.8c5.62 0 10.2-4.555 10.2-10.125 0-5.59-4.58-10.145-10.2-10.145z"></path>
<path d="M780.68 144c-134.16 0-243.3 108.232-243.3 241.269 0 66.28 34.16 150.562 101.54 250.518 49.64 73.64 99.66 129.397 105.18 135.504 9.32 10.284 22.66 16.172 36.58 16.172 6.96 0 13.8-1.472 20.040-4.237 6.24-2.745 11.88-6.783 16.54-11.935 5.54-6.107 55.56-61.864 105.2-135.504 67.38-99.957 101.54-184.239 101.54-250.518 0-133.037-109.16-241.269-243.32-241.269zM895.68 414.51c0 38.491-31.48 69.801-70.2 69.801h-109.2c-21.28 0-38.6-17.226-38.6-38.391v-142.784c0-21.165 17.32-38.391 38.6-38.391h109.2c38.72 0 70.2 31.31 70.2 69.801 0 14.859-4.7 28.644-12.68 39.983 7.98 11.338 12.68 25.123 12.68 39.983z"></path>
</svg>
