<!-- Generated by IcoMoon.io -->
<svg version="1.1" xmlns="http://www.w3.org/2000/svg" width="1024" height="1024" viewBox="0 0 1024 1024">
<title></title>
<g id="icomoon-ignore">
</g>
<path d="M66 904h892v120h-892v-120z"></path>
<path d="M512 188c-212.84 0-386 173.16-386 386v270h772v-270c0-212.84-173.158-386-386-386zM512 378c-108.076 0-196 87.924-196 196h-60c0-141.16 114.84-256 256-256v60z"></path>
<path d="M0 482h70v60h-70v-60z"></path>
<path d="M482 0h60v128h-60v-128z"></path>
<path d="M954 482h70v60h-70v-60z"></path>
<path d="M210.013 83.593l51.96-30 64 110.848-51.96 30z"></path>
<path d="M851.533 294.017l110.846-63.999 30 51.96-110.846 63.999z"></path>
<path d="M31.589 281.983l30-51.96 110.848 64-30 51.96z"></path>
<path d="M698.014 164.461l64-110.848 51.96 30-64 110.848z"></path>
</svg>
