<!-- Generated by IcoMoon.io -->
<svg version="1.1" xmlns="http://www.w3.org/2000/svg" width="1024" height="1024" viewBox="0 0 1024 1024">
<title></title>
<g id="icomoon-ignore">
</g>
<path d="M230.869 147.304c16.206 0 29.341-13.074 29.341-29.196s-13.142-29.189-29.348-29.189c-58.47 0.003-106.047 47.335-106.051 105.506 0 16.122 13.135 29.196 29.341 29.196 0.003 0 0.003 0 0.003 0 16.206 0 29.344-13.071 29.344-29.189 0.003-25.99 21.252-47.125 47.369-47.128v0z"></path>
<path d="M225.861 58.385c0.014 0 0.014 0 0.021 0 16.202 0 29.341-13.071 29.344-29.193s-13.135-29.193-29.341-29.193c-0.010 0-0.014 0-0.024 0-50.859 0-98.679 19.704-134.646 55.486-35.974 35.788-55.787 83.368-55.784 133.975 0 16.122 13.138 29.193 29.344 29.193 16.209 0 29.344-13.071 29.344-29.193 0-35.016 13.703-67.932 38.594-92.691 24.884-24.755 57.96-38.384 93.148-38.384z"></path>
<path d="M797.297 608.342l-232.039-205.752c-13.086-11.612-32.851-11.609-45.938-0.007l-232.060 205.755c-7.347 6.516-11.551 15.846-11.551 25.641v355.676c0 18.963 15.457 34.344 34.522 34.344h464.099c19.065 0 34.522-15.381 34.522-34.344v-355.676c0-9.795-4.204-19.122-11.555-25.638zM566.675 896.307c-6.422 6.392-15.294 10.064-24.405 10.064-9.080 0-17.984-3.672-24.409-10.064-6.418-6.389-10.113-15.246-10.113-24.279 0-9.030 3.694-17.891 10.113-24.279 6.425-6.392 15.329-10.064 24.409-10.064 9.111 0 17.984 3.672 24.405 10.064 6.453 6.389 10.116 15.25 10.116 24.279 0 9.033-3.663 17.891-10.116 24.279zM576.802 774.147c0 18.97-15.457 34.344-34.522 34.344s-34.522-15.374-34.522-34.344v-137.375c0-18.963 15.457-34.344 34.522-34.344s34.522 15.381 34.522 34.344v137.375z"></path>
<path d="M593.448 245.781c-13.554 17.932-28.959 44.001-29.469 67.577l63.225 56.065c2.142-61.13-18.725-102.221-33.756-123.642v0z"></path>
<path d="M984.102 480.056c-13.939-83.209-55.455-139.019-57.215-141.353-6.453-8.564-16.92-13.171-27.646-12.24-10.719 0.931-20.226 7.34-25.102 16.88-0.357 0.7-30.349 58.323-81.323 77.765 10.179-144.88-34.761-241.985-76.395-299.436-50.128-69.167-106.584-97.759-108.965-98.945-7.389-3.675-15.946-4.279-23.782-1.683-113.599 37.678-153.687 144.239-167.827 215.947l-43.599-45.273c-11.471-11.916-30.325-12.802-42.881-1.993-1.892 1.624-46.711 40.574-78.11 100.318-43.564 82.889-40.829 165.143 7.905 237.871 2.391 3.572 5.507 6.592 9.111 8.892l252.071-223.497c0.776-58.968 55.413-114.033 57.756-116.36 8.217-8.171 21.418-8.499 30.037-0.769 3.31 2.972 79.378 73.2 59.458 209.058l203.011 180.017c4.98 4.41 7.822 10.723 7.822 17.353v179.759c109.977-113.033 118.375-226.476 105.673-302.311v0z"></path>
</svg>
