<!-- Generated by IcoMoon.io -->
<svg version="1.1" xmlns="http://www.w3.org/2000/svg" width="1024" height="1024" viewBox="0 0 1024 1024">
<title></title>
<g id="icomoon-ignore">
</g>
<path d="M795.511 482.877c12.81 0 23.311 10.303 23.521 23.13 0 12.826-10.501 23.34-23.311 23.34-27.931 0-50.822 22.92-50.822 50.886 0 12.826-10.501 23.34-23.311 23.34s-23.311-10.514-23.311-23.34c0-53.619 43.472-97.356 97.233-97.356zM954.066 415.801c43.051 41.634 69.723 99.879 69.513 164.432 0 126.163-102.484 228.775-228.489 228.775-116.344 0-212.528-87.683-226.598-200.389-16.801 9.673-36.122 15.139-56.913 15.139-20.581 0-40.112-5.467-56.913-15.139-13.86 112.915-110.254 200.599-226.598 200.599-126.005 0-228.489-102.612-228.489-228.775 0-64.553 26.671-122.798 69.723-164.432 5.671-5.678 11.761-10.934 18.061-15.77l86.103-73.175c32.971-23.34 72.662-38.479 115.504-41.424l-4.62 4.626 52.292-52.568h0.42c14.701-13.457 34.021-21.448 55.232-21.448 36.332 0 67.203 23.76 77.913 56.563 11.761-7.359 25.621-11.776 40.531-11.776 2.1 0 4.411 0 6.51 0.21 13.231 0.841 25.411 4.836 35.911 11.564 10.501-33.013 41.372-56.773 77.913-56.773 21.21 0 40.741 8.201 55.232 21.448h0.42l47.672 47.942c42.842 2.943 82.323 17.873 115.504 41.424l86.103 73.175c6.3 5.046 12.39 10.303 18.061 15.77zM228.070 736.464c86.103 0 156.036-70.020 155.825-156.022 0-86.211-69.723-156.022-155.825-156.022s-155.825 69.81-155.825 156.022c0 86.211 69.723 156.022 155.825 156.022zM511.79 558.995c27.931 0 50.611-22.71 50.611-50.675s-22.681-50.675-50.611-50.675c-27.931 0-50.611 22.71-50.611 50.675s22.681 50.675 50.611 50.675zM795.511 736.464c86.103 0 155.825-70.020 155.825-156.022 0-86.211-69.723-156.022-155.825-156.022s-155.825 69.81-155.825 156.022c0 86.211 69.723 156.022 155.825 156.022zM228.070 482.877c12.81 0 23.311 10.303 23.521 23.13 0 12.826-10.501 23.34-23.311 23.34-27.931 0-50.822 22.92-50.822 50.886 0 12.826-10.501 23.34-23.311 23.34s-23.311-10.514-23.311-23.34c0-53.619 43.472-97.356 97.233-97.356z"></path>
</svg>
