<!-- Generated by IcoMoon.io -->
<svg version="1.1" xmlns="http://www.w3.org/2000/svg" width="1024" height="1024" viewBox="0 0 1024 1024">
<title></title>
<g id="icomoon-ignore">
</g>
<path d="M1015.577 429.561c0 8.842-5.246 18.489-15.737 28.94l-219.709 213.426 52.054 301.448c0.403 2.813 0.606 6.834 0.606 12.058 0 8.441-2.119 15.576-6.356 21.402s-10.39 8.742-18.461 8.742c-7.666 0-15.737-2.412-24.211-7.235l-271.762-142.284-271.762 142.284c-8.878 4.823-16.947 7.235-24.211 7.235-8.474 0-14.828-2.913-19.065-8.742s-6.356-12.963-6.356-21.402c0-2.412 0.403-6.43 1.21-12.058l52.054-301.448-220.315-213.426c-10.087-10.853-15.131-20.499-15.131-28.94 0-14.871 11.299-24.117 33.895-27.734l303.842-44.012 136.184-274.318c7.666-16.478 17.552-24.719 29.658-24.719s21.99 8.24 29.658 24.719l136.184 274.318 303.842 44.012c22.596 3.618 33.895 12.861 33.895 27.734z"></path>
</svg>
