<!-- Generated by IcoMoon.io -->
<svg version="1.1" xmlns="http://www.w3.org/2000/svg" width="1024" height="1024" viewBox="0 0 1024 1024">
<title></title>
<g id="icomoon-ignore">
</g>
<path d="M262.542 0h498.916c91.292 0 124.396 9.505 157.771 27.354s59.568 44.042 77.417 77.417c17.849 33.375 27.354 66.479 27.354 157.771v498.916c0 91.292-9.505 124.396-27.354 157.771s-44.042 59.568-77.417 77.417c-33.375 17.849-66.479 27.354-157.771 27.354h-498.916c-91.292 0-124.396-9.505-157.771-27.354s-59.568-44.042-77.417-77.417c-17.849-33.375-27.354-66.479-27.354-157.771v-498.916c0-91.292 9.505-124.396 27.354-157.771s44.042-59.568 77.417-77.417c33.375-17.849 66.479-27.354 157.771-27.354zM482.099 768v-164.864h84.582c116.838 0 169.165-80.998 169.165-164.147 0-82.432-52.326-164.864-169.165-164.864h-204.288v493.875h119.706zM560.947 378.778c39.424 0 53.76 31.539 53.76 60.211 0 29.389-14.336 60.928-53.76 60.928h-78.848v-121.139h78.848z"></path>
</svg>
