<!-- Generated by IcoMoon.io -->
<svg version="1.1" xmlns="http://www.w3.org/2000/svg" width="1632" height="1024" viewBox="0 0 1632 1024">
<title></title>
<g id="icomoon-ignore">
</g>
<path fill="none" stroke-linejoin="round" stroke-linecap="round" stroke-miterlimit="4" stroke-width="384" stroke="#000" d="M205.832 761.688l610.156-499.375 610.156 499.375"></path>
</svg>
