<!-- Generated by IcoMoon.io -->
<svg version="1.1" xmlns="http://www.w3.org/2000/svg" width="1280" height="1024" viewBox="0 0 1280 1024">
<title></title>
<g id="icomoon-ignore">
</g>
<path d="M255.74 1024h768.536c141.385 0 256-114.615 256-256 0-55.311-17.914-109.134-51.059-153.412l-384.268-513.338c-84.727-113.185-245.167-136.256-358.353-51.529-19.546 14.631-36.898 31.983-51.529 51.529l-384.268 513.338c-84.727 113.186-61.657 273.626 51.529 358.353 44.279 33.146 98.102 51.059 153.412 51.059z"></path>
</svg>
