<!-- Generated by IcoMoon.io -->
<svg version="1.1" xmlns="http://www.w3.org/2000/svg" width="1024" height="1024" viewBox="0 0 1024 1024">
<title></title>
<g id="icomoon-ignore">
</g>
<path d="M237.546 83.16c-16.538-5.15-34.101 4.108-39.241 20.676l-106.708 344.052c-2.469 7.956-1.681 16.568 2.19 23.942s10.505 12.904 18.446 15.378l553.553 172.352 354.462-332.7-782.701-243.7z"></path>
<path d="M999.949 446.31l-11.452-3.566-206.375 193.704 144.869 45.106c3.040 0.946 6.176 1.416 9.304 1.416 5.036 0 10.050-1.216 14.592-3.61 7.36-3.878 12.879-10.526 15.348-18.482l54.352-175.248c5.136-16.568-4.102-34.172-20.638-39.32z"></path>
<path d="M348.857 626.67l-7.154 23.070c-5.138 16.568 4.1 34.17 20.636 39.318l179.272 55.818c3.040 0.946 6.176 1.416 9.304 1.416 5.036 0 10.050-1.216 14.592-3.61 7.36-3.878 12.879-10.526 15.348-18.482l7.154-23.072-239.151-74.458z"></path>
<path d="M407.811 769.008l-2.226 8.036h-223.657c-6.398-64.484-60.847-115.014-126.86-115.014h-23.718c-17.314-0.002-31.351 14.064-31.351 31.412v233.412c0 17.348 14.037 31.412 31.351 31.412h23.718c67.161 0 122.319-52.31 127.118-118.396h247.231c14.084 0 26.44-9.412 30.209-23.008l8.090-29.2-59.905-18.654z"></path>
</svg>
