<!-- Generated by IcoMoon.io -->
<svg version="1.1" xmlns="http://www.w3.org/2000/svg" width="1024" height="1024" viewBox="0 0 1024 1024">
<title></title>
<g id="icomoon-ignore">
</g>
<path d="M850.799 0v62.438h-677.598v-62.438h-75.29v1024h75.288v-62.438h677.6v62.438h75.288v-1024h-75.288zM850.801 711.804h-677.6v-74.926h677.6v74.926zM850.801 387.122h-677.6v-74.926h677.6v74.926z"></path>
</svg>
